{
    "bosses": {
        "dancing_princes": {
            "acid_area_of_effect": 35.0,
            "acid_fire_cd": 0.5,
            "acid_pool_size": [ 120.0, 10.0 ],
            "acid_projectile_speed": 325.0,
            "acid_projectiles": 4.0,
            "laser_speed": 325.0,
            "prince_laser_cd": 0.6000000238418579,
            "prince_leaf_cd": 1.5,
            "shake_effect_intensiy": 2.5,
            "spike_delay_time": 0.25,
            "spike_hold_time": 1.0
        },
        "demonic_hammer": {
            "barrage_projectile_count": 9.0,
            "falling_rain_duration": 10.0,
            "falling_rain_emit_cooldown": 0.27000001072883606,
            "fly_speed": 300.0,
            "hit_points": 150.0,
            "nail_barrage_cooldown": 1.0,
            "nail_barrage_max_dist": 200.0,
            "nail_barrage_spread_angle": 14.0,
            "scale_down_anim_length": 0.10000000149011612,
            "scale_up_anim_length": 1.0,
            "shake_effect_intensiy": 2.200000047683716,
            "smash_down_cooldown": 7.0,
            "smash_down_max_dist": 60.0,
            "smash_down_rotate_time": 0.15000000596046448,
            "smash_down_speed": 800.0,
            "stuck_in_ground_time": 3.4000000953674316
        },
        "evil_eye": {
            "arc_laser_cooldown": 8.0,
            "arc_laser_sweep_time": 1.7000000476837158,
            "dodge_cooldown": 5.0,
            "fire_cooldown_max": 1.5,
            "fire_cooldown_min": 0.699999988079071,
            "hit_points": 100.0,
            "laser_speed": 500.0,
            "shake_effect_intensiy": 3.0
        },
        "unnamed": {
            "hit_points": 100.0,
            "projectile_radius": 10.0,
            "ra_gather_tween_time": 2.0,
            "basic_attack_cooldown": 5.0,
            "floating_speed": 150.0,
            "boulder_speed": 200.0,
            "split_angle": 30.0
        },
        "shared": {
            "arrow_speed": 400.0,
            "nail_speed": 575.0
        }
    },
    "player": {
        "acceleration": 1750.0,
        "bow_damage": 6.0,
        "dash_cooldown": 0.1899999976158142,
        "dash_length": 0.30000001192092896,
        "fire_cooldown": 0.5,
        "max_move_speed": 300.0,
        "projectile_speed": 450.0
    },
    "world": {
        "boss_projectile_gravity_scale": 1.7999999523162842,
        "explosion_duration": 0.25,
        "explosion_scale_up_speed": 380.0,
        "gravity": [ 0.0, 120.0 ],
        "ground_friction": 0.44999998807907104,
        "ground_height": 10.0,
        "leaf_fall_drop_speed": 85.0,
        "leaf_fall_sway_range": 50.0
    }
}
